{
  "type": "service_account",
  "project_id": "tcs-v4",
  "private_key_id": "1600816bfb1c622098b26a1d4e165ea5b4d94bdf",
  "private_key": "-----BEGIN PRIVATE KEY-----\nMIIEvQIBADANBgkqhkiG9w0BAQEFAASCBKcwggSjAgEAAoIBAQC9eQC6tPfm4V8j\nb1NShYOTurvvr6jockhNGioN0iYreobKwg8J4X+YE1N+m1BIA1x5dJDPOUhzWlNl\nuuSDD+VufziXF2GzjNFftGmnh736Avi/pAaRtypngN40fGtiYSt1o65oK4Go9ABk\nXPQ20TJDphKUXykkvlpke76ePCknr0RNk/Pwgk59XdahIhDw5WCACjoaxR4FtNL/\nnQYQOPJy959kQoamDl6+tKX++HIRHxrr9oZdZ1+ysmKFIBxzFGAVBg/6CdlTPAMI\nlvvj6ixUr6NffjZTabwF49xu+E17sM4OwKQHCpd1sBmCye1uxn6UNxqLJ1Y/NQY7\nFkpo5yhZAgMBAAECggEAEemDk828oJtudsIf2sL72mvNN+6fsEHwQIxtrLAmTaFK\nvEELp5UljodH3cXpxApqo/d3d9pkKrY/q3QMsFtAsb6Ikg1y02+c8khIXhSAyvGc\nTzm+0+hrXizvqintA6LzYdlfM+07rRuhgdt2dvbgopvrpmfh/YhFXA8wHnN04ecP\n4aGXOUauGnj22LgBUuZ+3XqTF6PIGcamV7QNmDP8swryBe09gyvBF3ufHicYQ86m\nVlSiLbhyVCe9f/fqco6NdNoaImLnuP0oILOot8+6EtkkBpP18aPF67d0oheHBAkz\n2l4PoGU61Ns6Sel5JnX/pgHTTGl3Gk7vgz6Gwfry1QKBgQDinx3qV3Nzowf07mzy\nn61QfVkaSW/t2+dldF2aty2hhf7lKnwUTY62pSnmoS56+IQ6jl67ZsStcaZQNS52\nJjIZpRk3heOxKQTw2SJpZqklKXUtElocf6LBVmSE92p4d9h0ktfSGbFPOPBXF1Pe\nWdBKPVJnrMnh9DE2qtKOtiicjwKBgQDWCQbsIQebvQYKLSuCjDrzZ6ho7hicc59k\ntu7uVTgDhRGHrw5E0o7vE4x8VBH0HIUi9Y1qGLnAGUSHHrOq2nwbIbnmRoRqTruF\nlPxGUYwmq/FOBtgGQiqToQUo/OJr/GKGiisKiwrj6STjm2pAuQU2az6AEFDiv6TF\nL1sNCOgwlwKBgQDcJtt29jGwGqb2KFEqejhyQvM2eDUGC2UFyD/Otzja+0Md+WHE\nj3uer2C/LcHrsFU0VW5t+24BWLDKpn9WQ9DT3PFcYPNK/aBRIX8uiY60DUxJ1tQ3\nbz77NyQ7j+ec1EAxLx3+evsnDRdeY8kT7ohMNrpBATi2CvVsOBKIlSlqvQKBgBor\nXmJOo4yCLxPdc/1xQd/y4594xR+T74Az8cDIQKIFiiAp4je9+uX2YO3upYdQWWLt\n3Q2E2mlHbZ6LvXH9ZsE2fXFPW+9XkwwBLFs4q0crLMTah100h9onDOd3DAQiBrXm\nfN68I2e8YNtHbFVfieiecjTcSdd/kRje8mYEmccfAoGAcZurLPcJc7xk9l9JLJ1q\ntO44BI/ZMp60ywp+SyeW+1x5JhROh9DawsjN+FwsKgu8kgtPINOKNz+9WGXCoV8c\nyngh13y4Iy7XFooZtk9UWsdVfK78GjfPhIUipye96ZWu2ox+H+4wODoEo+tt3wRR\nxqTJNoJzGJ76VLb05EWcUqE=\n-----END PRIVATE KEY-----\n",
  "client_email": "tcsv4-916@tcs-v4.iam.gserviceaccount.com",
  "client_id": "106948910128304294244",
  "auth_uri": "https://accounts.google.com/o/oauth2/auth",
  "token_uri": "https://oauth2.googleapis.com/token",
  "auth_provider_x509_cert_url": "https://www.googleapis.com/oauth2/v1/certs",
  "client_x509_cert_url": "https://www.googleapis.com/robot/v1/metadata/x509/tcsv4-916%40tcs-v4.iam.gserviceaccount.com"
}
