<?xml version="1.0" encoding="UTF-8"?>
<svg width="512px" height="512px" viewBox="0 0 512 512" version="1.1" xmlns="http://www.w3.org/2000/svg" xmlns:xlink="http://www.w3.org/1999/xlink">
    <title>external-link-alt-solid</title>
    <g id="Page-1" stroke="none" stroke-width="1" fill="none" fill-rule="evenodd">
        <g id="external-link-alt-solid" fill="#ccc" fill-rule="nonzero">
            <path d="M432,320 L400,320 C391.163444,320 384,327.163444 384,336 L384,448 L64,448 L64,128 L208,128 C216.836556,128 224,120.836556 224,112 L224,80 C224,71.163444 216.836556,64 208,64 L48,64 C21.490332,64 0,85.490332 0,112 L0,464 C0,490.509668 21.490332,512 48,512 L400,512 C426.509668,512 448,490.509668 448,464 L448,336 C448,327.163444 440.836556,320 432,320 Z M151.941074,384.058926 L279.941074,384.058926 C301.311074,384.058926 311.991074,358.148926 296.941074,343.058926 L261.211074,307.328926 L504.941074,63.6889257 C509.459983,59.1856807 512,53.0685611 512,46.6889257 C512,40.3092902 509.459983,34.1921706 504.941074,29.6889257 L482.271074,7.05892565 C477.767829,2.54001721 471.65071,7.21200877e-13 465.271074,7.21200877e-13 C458.891439,7.21200877e-13 452.774319,2.54001721 448.271074,7.05892565 L204.661074,250.738926 L168.941074,215.058926 C153.941074,200.058926 127.941074,210.558926 127.941074,232.058926 L127.941074,360.058926 C127.941074,373.31376 138.68624,384.058926 151.941074,384.058926 Z" id="Shape"></path>
        </g>
    </g>
</svg>
