<?xml version="1.0" encoding="UTF-8" standalone="no"?>
<!DOCTYPE svg PUBLIC "-//W3C//DTD SVG 1.1//EN" "http://www.w3.org/Graphics/SVG/1.1/DTD/svg11.dtd">
<svg width="83px" height="83px" viewBox="0 0 640 512" version="1.1" xmlns="http://www.w3.org/2000/svg" xmlns:xlink="http://www.w3.org/1999/xlink" xml:space="preserve" xmlns:serif="http://www.serif.com/" style="fill-rule:evenodd;clip-rule:evenodd;stroke-linejoin:round;stroke-miterlimit:2;">
    <g transform="matrix(0.974491,0,0,0.974491,7.9921,4.33933)">
        <path d="M384,320L256,320C238.33,320 224,334.33 224,352L224,480C224,497.67 238.33,512 256,512L384,512C401.67,512 416,497.67 416,480L416,352C416,334.33 401.67,320 384,320ZM192,32C192,14.33 177.67,0 160,0L32,0C14.33,0 0,14.33 0,32L0,160C0,177.67 14.33,192 32,192L127.72,192L200.88,320.04C211.98,300.98 232.4,288 256,288L256.28,288L192,175.51L192,128L416,128L416,64L192,64L192,32ZM608,0L480,0C462.33,0 448,14.33 448,32L448,160C448,177.67 462.33,192 480,192L608,192C625.67,192 640,177.67 640,160L640,32C640,14.33 625.67,0 608,0Z" style="fill:rgb(170,170,170);fill-rule:nonzero;"/>
    </g>
    <g transform="matrix(0.349452,0,0,0.349452,536.825,95.8435)">
        <g transform="matrix(1,0,0,1,-224,-256)">
            <path d="M416,208L272,208L272,64C272,46.33 257.67,32 240,32L208,32C190.33,32 176,46.33 176,64L176,208L32,208C14.33,208 0,222.33 0,240L0,272C0,289.67 14.33,304 32,304L176,304L176,448C176,465.67 190.33,480 208,480L240,480C257.67,480 272,465.67 272,448L272,304L416,304C433.67,304 448,289.67 448,272L448,240C448,222.33 433.67,208 416,208Z" style="fill-rule:nonzero;fill:rgb(255,255,255);"/>
        </g>
    </g>
</svg>
